/home/murali/ofs/java/B2B/notification-service/src/test/java/com/b2b/notification/service/NotificationServiceImplTest.java
/home/murali/ofs/java/B2B/notification-service/src/test/java/com/b2b/notification/repository/RecipientRepositoryTest.java
/home/murali/ofs/java/B2B/notification-service/src/test/java/com/b2b/notification/NotificationServiceApplicationTests.java
/home/murali/ofs/java/B2B/notification-service/src/test/java/com/b2b/notification/service/EmailServiceImplTest.java
/home/murali/ofs/java/B2B/notification-service/src/test/java/com/b2b/notification/service/RecipientServiceImplTest.java
/home/murali/ofs/java/B2B/notification-service/src/test/java/com/b2b/notification/controller/RecipientControllerTest.java
